/out:"W:\C#\SuperPass\SuperPass\obj\x64\Release\ilc\intermediate\SgGenerated\\"
/int:"W:\C#\SuperPass\SuperPass\obj\x64\Release\ilc\intermediate\\"
/ref:"W:\C#\SuperPass\SuperPass\obj\x64\Release\ilc\intermediate\PreMergeILTransformed\\"
/ref:"W:\C#\SuperPass\SuperPass\obj\x64\Release\ilc\intermediate\TransformedSRWR\\"
/ref:"W:\C#\SuperPass\SuperPass\obj\x64\Release\ilc\in\\"
/ref:"W:\C#\SuperPass\SuperPass\obj\x64\Release\ilc\in\\"
/ref:"W:\C#\SuperPass\SuperPass\obj\x64\Release\ilc\in\\"
/ref:"C:\Program Files (x86)\MSBuild\Microsoft\.NetNative\x64\ilc\lib\Private\\"
/ref:"W:\C#\SuperPass\SuperPass\obj\x64\Release\ilc\in\WinMetadata\\"
/ca:System.Private.CoreLib
